<?xml version="1.0" encoding="UTF-8" standalone="no"?>
<!-- Created with Inkscape (http://www.inkscape.org/) -->

<svg
   xmlns:ns0="http://sodipodi.sourceforge.net/DTD/inkex-0.dtd"
   xmlns:osb="http://www.openswatchbook.org/uri/2009/osb"
   xmlns:dc="http://purl.org/dc/elements/1.1/"
   xmlns:cc="http://creativecommons.org/ns#"
   xmlns:rdf="http://www.w3.org/1999/02/22-rdf-syntax-ns#"
   xmlns:svg="http://www.w3.org/2000/svg"
   xmlns="http://www.w3.org/2000/svg"
   xmlns:sodipodi="http://sodipodi.sourceforge.net/DTD/sodipodi-0.dtd"
   xmlns:inkscape="http://www.inkscape.org/namespaces/inkscape"
   id="svg8"
   version="1.1"
   viewBox="0 0 210 297"
   height="297mm"
   width="210mm"
   inkscape:version="0.92.4 (5da689c313, 2019-01-14)"
   sodipodi:docname="mapa.svg">
  <defs
     id="defs2">
    <linearGradient
       id="linearGradient5164"
       osb:paint="solid">
      <stop
         style="stop-color:#000000;stop-opacity:1;"
         offset="0"
         id="stop5162" />
    </linearGradient>
  </defs>
  <sodipodi:namedview
     id="base"
     pagecolor="#ffffff"
     bordercolor="#666666"
     borderopacity="1.0"
     inkscape:pageopacity="0.0"
     inkscape:pageshadow="2"
     inkscape:zoom="0.7"
     inkscape:cx="624.59821"
     inkscape:cy="720.44054"
     inkscape:document-units="mm"
     inkscape:current-layer="layer1"
     showgrid="false"
     inkscape:window-width="1920"
     inkscape:window-height="1031"
     inkscape:window-x="0"
     inkscape:window-y="0"
     inkscape:window-maximized="1"
     showborder="false" />
  <metadata
     id="metadata5">
    <rdf:RDF>
      <cc:Work
         rdf:about="">
        <dc:format>image/svg+xml</dc:format>
        <dc:type
           rdf:resource="http://purl.org/dc/dcmitype/StillImage" />
        <dc:title></dc:title>
      </cc:Work>
    </rdf:RDF>
  </metadata>
  <g
     inkscape:label="Layer 1"
     inkscape:groupmode="layer"
     id="layer1">
    <rect
       ns0:table-id="inkscape-table0"
       ns0:row="0"
       ns0:column="0"
       y="0px"
       x="0px"
       width="35.4330708661px"
       style="fill:#b3b3b3;stroke:#b3b3b3;stroke-width:0.5;stroke-miterlimit:4;stroke-opacity:1;stroke-dasharray:none"
       id="inkscape-table0"
       height="35.4330708661px"
       inkscape:export-xdpi="96"
       inkscape:export-ydpi="96" />
    <rect
       ns0:table-id="inkscape-table0"
       ns0:row="0"
       ns0:column="1"
       y="0px"
       x="35.4330708661px"
       width="35.4330708661px"
       style="fill:none;stroke:#b3b3b3;stroke-width:0.5;stroke-miterlimit:4;stroke-opacity:1;stroke-dasharray:none"
       id="inkscape-table0a"
       height="35.4330708661px"
       inkscape:export-xdpi="96"
       inkscape:export-ydpi="96" />
    <rect
       ns0:table-id="inkscape-table0"
       ns0:row="0"
       ns0:column="2"
       y="0px"
       x="70.8661417323px"
       width="35.4330708661px"
       style="fill:none;stroke:#b3b3b3;stroke-width:0.5;stroke-miterlimit:4;stroke-opacity:1;stroke-dasharray:none"
       id="inkscape-table0O"
       height="35.4330708661px"
       inkscape:export-xdpi="96"
       inkscape:export-ydpi="96" />
    <rect
       ns0:table-id="inkscape-table0"
       ns0:row="0"
       ns0:column="3"
       y="0px"
       x="106.299212598px"
       width="35.4330708661px"
       style="fill:none;stroke:#b3b3b3;stroke-width:0.5;stroke-miterlimit:4;stroke-opacity:1;stroke-dasharray:none"
       id="inkscape-table0V"
       height="35.4330708661px"
       inkscape:export-xdpi="96"
       inkscape:export-ydpi="96" />
    <rect
       ns0:table-id="inkscape-table0"
       ns0:row="0"
       ns0:column="4"
       y="0px"
       x="141.732283465px"
       width="35.4330708661px"
       style="fill:none;stroke:#b3b3b3;stroke-width:0.5;stroke-miterlimit:4;stroke-opacity:1;stroke-dasharray:none"
       id="inkscape-table04"
       height="35.4330708661px"
       inkscape:export-xdpi="96"
       inkscape:export-ydpi="96" />
    <rect
       ns0:table-id="inkscape-table0"
       ns0:row="0"
       ns0:column="5"
       y="0px"
       x="177.165354331px"
       width="35.4330708661px"
       style="fill:none;stroke:#b3b3b3;stroke-width:0.5;stroke-miterlimit:4;stroke-opacity:1;stroke-dasharray:none"
       id="inkscape-table0D"
       height="35.4330708661px"
       inkscape:export-xdpi="96"
       inkscape:export-ydpi="96" />
    <rect
       ns0:table-id="inkscape-table0"
       ns0:row="0"
       ns0:column="6"
       y="0px"
       x="212.598425197px"
       width="35.4330708661px"
       style="fill:none;stroke:#b3b3b3;stroke-width:0.5;stroke-miterlimit:4;stroke-opacity:1;stroke-dasharray:none"
       id="inkscape-table0l"
       height="35.4330708661px"
       inkscape:export-xdpi="96"
       inkscape:export-ydpi="96" />
    <rect
       ns0:table-id="inkscape-table0"
       ns0:row="0"
       ns0:column="7"
       y="0px"
       x="248.031496063px"
       width="35.4330708661px"
       style="fill:none;stroke:#b3b3b3;stroke-width:0.5;stroke-miterlimit:4;stroke-opacity:1;stroke-dasharray:none"
       id="inkscape-table0x"
       height="35.4330708661px"
       inkscape:export-xdpi="96"
       inkscape:export-ydpi="96" />
    <rect
       ns0:table-id="inkscape-table0"
       ns0:row="0"
       ns0:column="8"
       y="0px"
       x="283.464566929px"
       width="35.4330708661px"
       style="fill:none;stroke:#b3b3b3;stroke-width:0.5;stroke-miterlimit:4;stroke-opacity:1;stroke-dasharray:none"
       id="inkscape-table0xf"
       height="35.4330708661px"
       inkscape:export-xdpi="96"
       inkscape:export-ydpi="96" />
    <rect
       ns0:table-id="inkscape-table0"
       ns0:row="0"
       ns0:column="9"
       y="0px"
       x="318.897637795px"
       width="35.4330708661px"
       style="fill:none;stroke:#b3b3b3;stroke-width:0.5;stroke-miterlimit:4;stroke-opacity:1;stroke-dasharray:none"
       id="inkscape-table09"
       height="35.4330708661px"
       inkscape:export-xdpi="96"
       inkscape:export-ydpi="96" />
    <rect
       ns0:table-id="inkscape-table0"
       ns0:row="1"
       ns0:column="0"
       y="35.4330708661px"
       x="0px"
       width="35.4330708661px"
       style="fill:#b3b3b3;stroke:#b3b3b3;stroke-width:0.5;stroke-miterlimit:4;stroke-opacity:1;stroke-dasharray:none"
       id="inkscape-table00"
       height="35.4330708661px"
       inkscape:export-xdpi="96"
       inkscape:export-ydpi="96" />
    <rect
       ns0:table-id="inkscape-table0"
       ns0:row="1"
       ns0:column="1"
       y="35.4330708661px"
       x="35.4330708661px"
       width="35.4330708661px"
       style="fill:none;stroke:#b3b3b3;stroke-width:0.5;stroke-miterlimit:4;stroke-opacity:1;stroke-dasharray:none"
       id="inkscape-table0c"
       height="35.4330708661px"
       inkscape:export-xdpi="96"
       inkscape:export-ydpi="96" />
    <rect
       ns0:table-id="inkscape-table0"
       ns0:row="1"
       ns0:column="2"
       y="35.4330708661px"
       x="70.8661417323px"
       width="35.4330708661px"
       style="fill:#b3b3b3;stroke:#b3b3b3;stroke-width:0.5;stroke-miterlimit:4;stroke-opacity:1;stroke-dasharray:none"
       id="inkscape-table0s"
       height="35.4330708661px"
       inkscape:export-xdpi="96"
       inkscape:export-ydpi="96" />
    <rect
       ns0:table-id="inkscape-table0"
       ns0:row="1"
       ns0:column="3"
       y="35.4330708661px"
       x="106.299212598px"
       width="35.4330708661px"
       style="fill:none;stroke:#b3b3b3;stroke-width:0.5;stroke-miterlimit:4;stroke-opacity:1;stroke-dasharray:none"
       id="inkscape-table0k"
       height="35.4330708661px"
       inkscape:export-xdpi="96"
       inkscape:export-ydpi="96" />
    <rect
       ns0:table-id="inkscape-table0"
       ns0:row="1"
       ns0:column="4"
       y="35.4330708661px"
       x="141.732283465px"
       width="35.4330708661px"
       style="fill:none;stroke:#b3b3b3;stroke-width:0.5;stroke-miterlimit:4;stroke-opacity:1;stroke-dasharray:none"
       id="inkscape-table0b"
       height="35.4330708661px"
       inkscape:export-xdpi="96"
       inkscape:export-ydpi="96" />
    <rect
       ns0:table-id="inkscape-table0"
       ns0:row="1"
       ns0:column="5"
       y="35.4330708661px"
       x="177.165354331px"
       width="35.4330708661px"
       style="fill:none;stroke:#b3b3b3;stroke-width:0.5;stroke-miterlimit:4;stroke-opacity:1;stroke-dasharray:none"
       id="inkscape-table0i"
       height="35.4330708661px"
       inkscape:export-xdpi="96"
       inkscape:export-ydpi="96" />
    <rect
       ns0:table-id="inkscape-table0"
       ns0:row="1"
       ns0:column="6"
       y="35.4330708661px"
       x="212.598425197px"
       width="35.4330708661px"
       style="fill:#b3b3b3;stroke:#b3b3b3;stroke-width:0.5;stroke-miterlimit:4;stroke-opacity:1;stroke-dasharray:none"
       id="inkscape-table0J"
       height="35.4330708661px"
       inkscape:export-xdpi="96"
       inkscape:export-ydpi="96" />
    <rect
       ns0:table-id="inkscape-table0"
       ns0:row="1"
       ns0:column="7"
       y="35.4330708661px"
       x="248.031496063px"
       width="35.4330708661px"
       style="fill:none;stroke:#b3b3b3;stroke-width:0.5;stroke-miterlimit:4;stroke-opacity:1;stroke-dasharray:none"
       id="inkscape-table06"
       height="35.4330708661px"
       inkscape:export-xdpi="96"
       inkscape:export-ydpi="96" />
    <rect
       ns0:table-id="inkscape-table0"
       ns0:row="1"
       ns0:column="8"
       y="35.4330708661px"
       x="283.464566929px"
       width="35.4330708661px"
       style="fill:none;stroke:#b3b3b3;stroke-width:0.5;stroke-miterlimit:4;stroke-opacity:1;stroke-dasharray:none"
       id="inkscape-table0F"
       height="35.4330708661px"
       inkscape:export-xdpi="96"
       inkscape:export-ydpi="96" />
    <rect
       ns0:table-id="inkscape-table0"
       ns0:row="1"
       ns0:column="9"
       y="35.4330708661px"
       x="318.897637795px"
       width="35.4330708661px"
       style="fill:none;stroke:#b3b3b3;stroke-width:0.5;stroke-miterlimit:4;stroke-opacity:1;stroke-dasharray:none"
       id="inkscape-table0p"
       height="35.4330708661px"
       inkscape:export-xdpi="96"
       inkscape:export-ydpi="96" />
    <rect
       ns0:table-id="inkscape-table0"
       ns0:row="2"
       ns0:column="0"
       y="70.8661417323px"
       x="0px"
       width="35.4330708661px"
       style="fill:#b3b3b3;stroke:#b3b3b3;stroke-width:0.5;stroke-miterlimit:4;stroke-opacity:1;stroke-dasharray:none"
       id="inkscape-table0w"
       height="35.4330708661px"
       inkscape:export-xdpi="96"
       inkscape:export-ydpi="96" />
    <rect
       ns0:table-id="inkscape-table0"
       ns0:row="2"
       ns0:column="1"
       y="70.8661417323px"
       x="35.4330708661px"
       width="35.4330708661px"
       style="fill:none;stroke:#b3b3b3;stroke-width:0.5;stroke-miterlimit:4;stroke-opacity:1;stroke-dasharray:none"
       id="inkscape-table0Op"
       height="35.4330708661px"
       inkscape:export-xdpi="96"
       inkscape:export-ydpi="96" />
    <rect
       ns0:table-id="inkscape-table0"
       ns0:row="2"
       ns0:column="2"
       y="70.8661417323px"
       x="70.8661417323px"
       width="35.4330708661px"
       style="fill:none;stroke:#b3b3b3;stroke-width:0.5;stroke-miterlimit:4;stroke-opacity:1;stroke-dasharray:none"
       id="inkscape-table0g"
       height="35.4330708661px"
       inkscape:export-xdpi="96"
       inkscape:export-ydpi="96" />
    <rect
       ns0:table-id="inkscape-table0"
       ns0:row="2"
       ns0:column="3"
       y="70.8661417323px"
       x="106.299212598px"
       width="35.4330708661px"
       style="fill:none;stroke:#b3b3b3;stroke-width:0.5;stroke-miterlimit:4;stroke-opacity:1;stroke-dasharray:none"
       id="inkscape-table0M"
       height="35.4330708661px"
       inkscape:export-xdpi="96"
       inkscape:export-ydpi="96" />
    <rect
       ns0:table-id="inkscape-table0"
       ns0:row="2"
       ns0:column="4"
       y="70.8661417323px"
       x="141.732283465px"
       width="35.4330708661px"
       style="fill:none;stroke:#b3b3b3;stroke-width:0.5;stroke-miterlimit:4;stroke-opacity:1;stroke-dasharray:none"
       id="inkscape-table0ai"
       height="35.4330708661px"
       inkscape:export-xdpi="96"
       inkscape:export-ydpi="96" />
    <rect
       ns0:table-id="inkscape-table0"
       ns0:row="2"
       ns0:column="5"
       y="70.866142"
       x="177.16533"
       width="35.433086"
       style="fill:none;stroke:#b3b3b3;stroke-width:0.5;stroke-miterlimit:4;stroke-dasharray:none;stroke-opacity:1"
       id="inkscape-table0j"
       height="35.433071"
       inkscape:export-xdpi="96"
       inkscape:export-ydpi="96" />
    <rect
       ns0:table-id="inkscape-table0"
       ns0:row="2"
       ns0:column="6"
       y="70.866142"
       x="212.5984"
       width="35.433086"
       style="fill:none;stroke:#b3b3b3;stroke-width:0.5;stroke-miterlimit:4;stroke-dasharray:none;stroke-opacity:1"
       id="inkscape-table09y"
       height="35.433071"
       inkscape:export-xdpi="96"
       inkscape:export-ydpi="96" />
    <rect
       ns0:table-id="inkscape-table0"
       ns0:row="2"
       ns0:column="7"
       y="70.8661417323px"
       x="248.031496063px"
       width="35.4330708661px"
       style="fill:none;stroke:#b3b3b3;stroke-width:0.5;stroke-miterlimit:4;stroke-opacity:1;stroke-dasharray:none"
       id="inkscape-table0e"
       height="35.4330708661px"
       inkscape:export-xdpi="96"
       inkscape:export-ydpi="96" />
    <rect
       ns0:table-id="inkscape-table0"
       ns0:row="2"
       ns0:column="8"
       y="70.8661417323px"
       x="283.464566929px"
       width="35.4330708661px"
       style="fill:#b3b3b3;stroke:#b3b3b3;stroke-width:0.5;stroke-miterlimit:4;stroke-opacity:1;stroke-dasharray:none"
       id="inkscape-table0d"
       height="35.4330708661px"
       inkscape:export-xdpi="96"
       inkscape:export-ydpi="96" />
    <rect
       ns0:table-id="inkscape-table0"
       ns0:row="2"
       ns0:column="9"
       y="70.8661417323px"
       x="318.897637795px"
       width="35.4330708661px"
       style="fill:#b3b3b3;stroke:#b3b3b3;stroke-width:0.5;stroke-miterlimit:4;stroke-opacity:1;stroke-dasharray:none"
       id="inkscape-table0v"
       height="35.4330708661px"
       inkscape:export-xdpi="96"
       inkscape:export-ydpi="96" />
    <rect
       ns0:table-id="inkscape-table0"
       ns0:row="3"
       ns0:column="0"
       y="106.299212598px"
       x="0px"
       width="35.4330708661px"
       style="fill:none;stroke:#b3b3b3;stroke-width:0.5;stroke-miterlimit:4;stroke-opacity:1;stroke-dasharray:none"
       id="inkscape-table0OQ"
       height="35.4330708661px"
       inkscape:export-xdpi="96"
       inkscape:export-ydpi="96" />
    <rect
       ns0:table-id="inkscape-table0"
       ns0:row="3"
       ns0:column="1"
       y="106.299212598px"
       x="35.4330708661px"
       width="35.4330708661px"
       style="fill:none;stroke:#b3b3b3;stroke-width:0.5;stroke-miterlimit:4;stroke-opacity:1;stroke-dasharray:none"
       id="inkscape-table09M"
       height="35.4330708661px"
       inkscape:export-xdpi="96"
       inkscape:export-ydpi="96" />
    <rect
       ns0:table-id="inkscape-table0"
       ns0:row="3"
       ns0:column="2"
       y="106.299212598px"
       x="70.8661417323px"
       width="35.4330708661px"
       style="fill:#b3b3b3;stroke:#b3b3b3;stroke-width:0.5;stroke-miterlimit:4;stroke-opacity:1;stroke-dasharray:none"
       id="inkscape-table0Os"
       height="35.4330708661px"
       inkscape:export-xdpi="96"
       inkscape:export-ydpi="96" />
    <rect
       ns0:table-id="inkscape-table0"
       ns0:row="3"
       ns0:column="3"
       y="106.299212598px"
       x="106.299212598px"
       width="35.4330708661px"
       style="fill:none;stroke:#b3b3b3;stroke-width:0.5;stroke-miterlimit:4;stroke-opacity:1;stroke-dasharray:none"
       id="inkscape-table0gB"
       height="35.4330708661px"
       inkscape:export-xdpi="96"
       inkscape:export-ydpi="96" />
    <rect
       ns0:table-id="inkscape-table0"
       ns0:row="3"
       ns0:column="4"
       y="106.299212598px"
       x="141.732283465px"
       width="35.4330708661px"
       style="fill:#b3b3b3;stroke:#b3b3b3;stroke-width:0.5;stroke-miterlimit:4;stroke-opacity:1;stroke-dasharray:none"
       id="inkscape-table0wE"
       height="35.4330708661px"
       inkscape:export-xdpi="96"
       inkscape:export-ydpi="96" />
    <rect
       ns0:table-id="inkscape-table0"
       ns0:row="3"
       ns0:column="5"
       y="106.299212598px"
       x="177.165354331px"
       width="35.4330708661px"
       style="fill:#b3b3b3;stroke:#b3b3b3;stroke-width:0.5;stroke-miterlimit:4;stroke-opacity:1;stroke-dasharray:none"
       id="inkscape-table0K"
       height="35.4330708661px"
       inkscape:export-xdpi="96"
       inkscape:export-ydpi="96" />
    <rect
       ns0:table-id="inkscape-table0"
       ns0:row="3"
       ns0:column="6"
       y="106.299212598px"
       x="212.598425197px"
       width="35.4330708661px"
       style="fill:#b3b3b3;stroke:#b3b3b3;stroke-width:0.5;stroke-miterlimit:4;stroke-opacity:1;stroke-dasharray:none"
       id="inkscape-table0Kd"
       height="35.4330708661px"
       inkscape:export-xdpi="96"
       inkscape:export-ydpi="96" />
    <rect
       ns0:table-id="inkscape-table0"
       ns0:row="3"
       ns0:column="7"
       y="106.29921"
       x="248.03149"
       width="35.433086"
       style="fill:none;stroke:#b3b3b3;stroke-width:0.5;stroke-miterlimit:4;stroke-dasharray:none;stroke-opacity:1"
       id="inkscape-table0P"
       height="35.433071"
       inkscape:export-xdpi="96"
       inkscape:export-ydpi="96" />
    <rect
       ns0:table-id="inkscape-table0"
       ns0:row="3"
       ns0:column="8"
       y="106.299212598px"
       x="283.464566929px"
       width="35.4330708661px"
       style="fill:none;stroke:#b3b3b3;stroke-width:0.5;stroke-miterlimit:4;stroke-opacity:1;stroke-dasharray:none"
       id="inkscape-table06K"
       height="35.4330708661px"
       inkscape:export-xdpi="96"
       inkscape:export-ydpi="96" />
    <rect
       ns0:table-id="inkscape-table0"
       ns0:row="3"
       ns0:column="9"
       y="106.299212598px"
       x="318.897637795px"
       width="35.4330708661px"
       style="fill:none;stroke:#b3b3b3;stroke-width:0.5;stroke-miterlimit:4;stroke-opacity:1;stroke-dasharray:none"
       id="inkscape-table0Q"
       height="35.4330708661px"
       inkscape:export-xdpi="96"
       inkscape:export-ydpi="96" />
    <rect
       ns0:table-id="inkscape-table0"
       ns0:row="4"
       ns0:column="0"
       y="141.732283465px"
       x="0px"
       width="35.4330708661px"
       style="fill:#ffffff;stroke:#b3b3b3;stroke-width:0.5;stroke-miterlimit:4;stroke-opacity:1;stroke-dasharray:none;fill-opacity:1"
       id="inkscape-table0Jt"
       height="35.4330708661px"
       inkscape:export-xdpi="96"
       inkscape:export-ydpi="96" />
    <rect
       ns0:table-id="inkscape-table0"
       ns0:row="4"
       ns0:column="1"
       y="141.732283465px"
       x="35.4330708661px"
       width="35.4330708661px"
       style="fill:#b3b3b3;stroke:#b3b3b3;stroke-width:0.5;stroke-miterlimit:4;stroke-opacity:1;stroke-dasharray:none"
       id="inkscape-table0q"
       height="35.4330708661px"
       inkscape:export-xdpi="96"
       inkscape:export-ydpi="96" />
    <rect
       ns0:table-id="inkscape-table0"
       ns0:row="4"
       ns0:column="2"
       y="141.73228"
       x="70.866142"
       width="35.433071"
       style="fill:#b3b3b3;stroke:#b3b3b3;stroke-width:0.5;stroke-miterlimit:4;stroke-dasharray:none;stroke-opacity:1"
       id="inkscape-table0f"
       height="35.433071"
       inkscape:export-xdpi="96"
       inkscape:export-ydpi="96" />
    <rect
       ns0:table-id="inkscape-table0"
       ns0:row="4"
       ns0:column="3"
       y="141.732283465px"
       x="106.299212598px"
       width="35.4330708661px"
       style="fill:none;stroke:#b3b3b3;stroke-width:0.5;stroke-miterlimit:4;stroke-opacity:1;stroke-dasharray:none"
       id="inkscape-table0A"
       height="35.4330708661px"
       inkscape:export-xdpi="96"
       inkscape:export-ydpi="96" />
    <rect
       ns0:table-id="inkscape-table0"
       ns0:row="4"
       ns0:column="4"
       y="141.732283465px"
       x="141.732283465px"
       width="35.4330708661px"
       style="fill:none;stroke:#b3b3b3;stroke-width:0.5;stroke-miterlimit:4;stroke-opacity:1;stroke-dasharray:none"
       id="inkscape-table0Jn"
       height="35.4330708661px"
       inkscape:export-xdpi="96"
       inkscape:export-ydpi="96" />
    <rect
       ns0:table-id="inkscape-table0"
       ns0:row="4"
       ns0:column="5"
       y="141.73228"
       x="177.16533"
       width="35.433086"
       style="fill:none;stroke:#b3b3b3;stroke-width:0.5;stroke-miterlimit:4;stroke-dasharray:none;stroke-opacity:1"
       id="inkscape-table0t"
       height="35.433071"
       inkscape:export-xdpi="96"
       inkscape:export-ydpi="96" />
    <rect
       ns0:table-id="inkscape-table0"
       ns0:row="4"
       ns0:column="6"
       y="141.732283465px"
       x="212.598425197px"
       width="35.4330708661px"
       style="fill:none;stroke:#b3b3b3;stroke-width:0.5;stroke-miterlimit:4;stroke-opacity:1;stroke-dasharray:none"
       id="inkscape-table07"
       height="35.4330708661px"
       inkscape:export-xdpi="96"
       inkscape:export-ydpi="96" />
    <rect
       ns0:table-id="inkscape-table0"
       ns0:row="4"
       ns0:column="7"
       y="141.73228"
       x="248.03149"
       width="35.433086"
       style="fill:none;stroke:#b3b3b3;stroke-width:0.5;stroke-miterlimit:4;stroke-dasharray:none;stroke-opacity:1"
       id="inkscape-table0R"
       height="35.433071"
       inkscape:export-xdpi="96"
       inkscape:export-ydpi="96" />
    <rect
       ns0:table-id="inkscape-table0"
       ns0:row="4"
       ns0:column="8"
       y="141.73228"
       x="283.4646"
       width="35.433086"
       style="fill:none;stroke:#b3b3b3;stroke-width:0.5;stroke-miterlimit:4;stroke-dasharray:none;stroke-opacity:1"
       id="inkscape-table0eV"
       height="35.433071"
       inkscape:export-xdpi="96"
       inkscape:export-ydpi="96" />
    <rect
       ns0:table-id="inkscape-table0"
       ns0:row="4"
       ns0:column="9"
       y="141.732283465px"
       x="318.897637795px"
       width="35.4330708661px"
       style="fill:none;stroke:#b3b3b3;stroke-width:0.5;stroke-miterlimit:4;stroke-opacity:1;stroke-dasharray:none"
       id="inkscape-table044"
       height="35.4330708661px"
       inkscape:export-xdpi="96"
       inkscape:export-ydpi="96" />
    <rect
       ns0:table-id="inkscape-table0"
       ns0:row="5"
       ns0:column="0"
       y="177.165354331px"
       x="0px"
       width="35.4330708661px"
       style="fill:#b3b3b3;stroke:#b3b3b3;stroke-width:0.5;stroke-miterlimit:4;stroke-opacity:1;stroke-dasharray:none"
       id="inkscape-table0Mp"
       height="35.4330708661px"
       inkscape:export-xdpi="96"
       inkscape:export-ydpi="96" />
    <rect
       ns0:table-id="inkscape-table0"
       ns0:row="5"
       ns0:column="1"
       y="177.165354331px"
       x="35.4330708661px"
       width="35.4330708661px"
       style="fill:#b3b3b3;stroke:#b3b3b3;stroke-width:0.5;stroke-miterlimit:4;stroke-opacity:1;stroke-dasharray:none"
       id="inkscape-table0Y"
       height="35.4330708661px"
       inkscape:export-xdpi="96"
       inkscape:export-ydpi="96" />
    <rect
       ns0:table-id="inkscape-table0"
       ns0:row="5"
       ns0:column="2"
       y="177.165354331px"
       x="70.8661417323px"
       width="35.4330708661px"
       style="fill:#b3b3b3;stroke:#b3b3b3;stroke-width:0.5;stroke-miterlimit:4;stroke-opacity:1;stroke-dasharray:none"
       id="inkscape-table0H"
       height="35.4330708661px"
       inkscape:export-xdpi="96"
       inkscape:export-ydpi="96" />
    <rect
       ns0:table-id="inkscape-table0"
       ns0:row="5"
       ns0:column="3"
       y="177.165354331px"
       x="106.299212598px"
       width="35.4330708661px"
       style="fill:#b3b3b3;stroke:#b3b3b3;stroke-width:0.5;stroke-miterlimit:4;stroke-opacity:1;stroke-dasharray:none"
       id="inkscape-table0U"
       height="35.4330708661px"
       inkscape:export-xdpi="96"
       inkscape:export-ydpi="96" />
    <rect
       ns0:table-id="inkscape-table0"
       ns0:row="5"
       ns0:column="4"
       y="177.165354331px"
       x="141.732283465px"
       width="35.4330708661px"
       style="fill:#b3b3b3;stroke:#b3b3b3;stroke-width:0.5;stroke-miterlimit:4;stroke-opacity:1;stroke-dasharray:none"
       id="inkscape-table0jJ"
       height="35.4330708661px"
       inkscape:export-xdpi="96"
       inkscape:export-ydpi="96" />
    <rect
       ns0:table-id="inkscape-table0"
       ns0:row="5"
       ns0:column="5"
       y="177.165354331px"
       x="177.165354331px"
       width="35.4330708661px"
       style="fill:#b3b3b3;stroke:#b3b3b3;stroke-width:0.5;stroke-miterlimit:4;stroke-opacity:1;stroke-dasharray:none"
       id="inkscape-table05"
       height="35.4330708661px"
       inkscape:export-xdpi="96"
       inkscape:export-ydpi="96" />
    <rect
       ns0:table-id="inkscape-table0"
       ns0:row="5"
       ns0:column="6"
       y="177.165354331px"
       x="212.598425197px"
       width="35.4330708661px"
       style="fill:#b3b3b3;stroke:#b3b3b3;stroke-width:0.5;stroke-miterlimit:4;stroke-opacity:1;stroke-dasharray:none"
       id="inkscape-table0Ht"
       height="35.4330708661px"
       inkscape:export-xdpi="96"
       inkscape:export-ydpi="96" />
    <rect
       ns0:table-id="inkscape-table0"
       ns0:row="5"
       ns0:column="7"
       y="177.165354331px"
       x="248.031496063px"
       width="35.4330708661px"
       style="fill:#b3b3b3;stroke:#b3b3b3;stroke-width:0.5;stroke-miterlimit:4;stroke-opacity:1;stroke-dasharray:none"
       id="inkscape-table0Qo"
       height="35.4330708661px"
       inkscape:export-xdpi="96"
       inkscape:export-ydpi="96" />
    <rect
       ns0:table-id="inkscape-table0"
       ns0:row="5"
       ns0:column="8"
       y="177.16536"
       x="283.4646"
       width="35.433086"
       style="fill:none;stroke:#b3b3b3;stroke-width:0.5;stroke-miterlimit:4;stroke-dasharray:none;stroke-opacity:1"
       id="inkscape-table052"
       height="35.433071"
       inkscape:export-xdpi="96"
       inkscape:export-ydpi="96" />
    <rect
       ns0:table-id="inkscape-table0"
       ns0:row="5"
       ns0:column="9"
       y="177.165354331px"
       x="318.897637795px"
       width="35.4330708661px"
       style="fill:none;stroke:#b3b3b3;stroke-width:0.5;stroke-miterlimit:4;stroke-opacity:1;stroke-dasharray:none"
       id="inkscape-table0f0"
       height="35.4330708661px"
       inkscape:export-xdpi="96"
       inkscape:export-ydpi="96" />
    <path
       style="fill:#b3b3b3;fill-opacity:1;stroke:#4d4d4d;stroke-width:1.5;stroke-linecap:butt;stroke-linejoin:miter;stroke-miterlimit:4;stroke-dasharray:none;stroke-opacity:1"
       d="m 318.89764,141.73228 v 35.43308 0"
       id="path5170"
       inkscape:connector-curvature="0"
       inkscape:export-xdpi="96"
       inkscape:export-ydpi="96" />
    <path
       style="fill:#b3b3b3;fill-opacity:1;stroke:#4d4d4d;stroke-width:1.5;stroke-linecap:butt;stroke-linejoin:miter;stroke-miterlimit:4;stroke-dasharray:none;stroke-opacity:1"
       d="m 141.73228,70.866142 v 35.433078 0"
       id="path5170-6"
       inkscape:connector-curvature="0"
       inkscape:export-xdpi="96"
       inkscape:export-ydpi="96" />
    <path
       style="fill:#b3b3b3;fill-opacity:1;stroke:#4d4d4d;stroke-width:1.5;stroke-linecap:butt;stroke-linejoin:miter;stroke-miterlimit:4;stroke-dasharray:none;stroke-opacity:1"
       d="M 106.29921,-8.1635254e-6 V 35.433071 v 0"
       id="path5170-7"
       inkscape:connector-curvature="0"
       inkscape:export-xdpi="96"
       inkscape:export-ydpi="96" />
    <path
       style="fill:#b3b3b3;fill-opacity:1;stroke:#4d4d4d;stroke-width:1.5;stroke-linecap:butt;stroke-linejoin:miter;stroke-miterlimit:4;stroke-dasharray:none;stroke-opacity:1"
       d="m 248.03149,70.86613 v 35.43308 0"
       id="path5170-5"
       inkscape:connector-curvature="0"
       inkscape:export-xdpi="96"
       inkscape:export-ydpi="96" />
    <path
       style="fill:none;stroke:#4d4d4d;stroke-width:1.5;stroke-linecap:butt;stroke-linejoin:miter;stroke-opacity:1;stroke-miterlimit:4;stroke-dasharray:none"
       d="m 283.46458,177.16536 h 35.43305"
       id="path5217"
       inkscape:connector-curvature="0"
       inkscape:export-xdpi="96"
       inkscape:export-ydpi="96" />
    <path
       style="fill:none;stroke:#4d4d4d;stroke-width:1.5;stroke-linecap:butt;stroke-linejoin:miter;stroke-miterlimit:4;stroke-dasharray:none;stroke-opacity:1"
       d="m 283.46459,141.73228 h 35.43305"
       id="path5217-5"
       inkscape:connector-curvature="0"
       inkscape:export-xdpi="96"
       inkscape:export-ydpi="96" />
    <path
       style="fill:none;stroke:#4d4d4d;stroke-width:1.5;stroke-linecap:butt;stroke-linejoin:miter;stroke-miterlimit:4;stroke-dasharray:none;stroke-opacity:1"
       d="m 248.03152,35.433071 h 35.43305"
       id="path5217-6"
       inkscape:connector-curvature="0"
       inkscape:export-xdpi="96"
       inkscape:export-ydpi="96" />
    <path
       style="fill:none;stroke:#4d4d4d;stroke-width:1.5;stroke-linecap:butt;stroke-linejoin:miter;stroke-miterlimit:4;stroke-dasharray:none;stroke-opacity:1"
       d="m 283.46459,35.433071 h 35.43305"
       id="path5217-2"
       inkscape:connector-curvature="0"
       inkscape:export-xdpi="96"
       inkscape:export-ydpi="96" />
    <path
       style="fill:none;stroke:#4d4d4d;stroke-width:1.5;stroke-linecap:butt;stroke-linejoin:miter;stroke-miterlimit:4;stroke-dasharray:none;stroke-opacity:1"
       d="m 141.73228,70.866142 h 35.43305"
       id="path5217-9"
       inkscape:connector-curvature="0"
       inkscape:export-xdpi="96"
       inkscape:export-ydpi="96" />
    <path
       style="fill:none;stroke:#4d4d4d;stroke-width:1.5;stroke-linecap:butt;stroke-linejoin:miter;stroke-miterlimit:4;stroke-dasharray:none;stroke-opacity:1"
       d="m 177.16537,35.433071 h 35.43305"
       id="path5217-1"
       inkscape:connector-curvature="0"
       inkscape:export-xdpi="96"
       inkscape:export-ydpi="96" />
    <path
       style="fill:none;stroke:#4d4d4d;stroke-width:1.5;stroke-linecap:butt;stroke-linejoin:miter;stroke-miterlimit:4;stroke-dasharray:none;stroke-opacity:1"
       d="m 141.73232,35.433071 h 35.43305"
       id="path5217-27"
       inkscape:connector-curvature="0"
       inkscape:export-xdpi="96"
       inkscape:export-ydpi="96" />
    <flowRoot
       xml:space="preserve"
       style="font-style:normal;font-variant:normal;font-weight:normal;font-stretch:normal;font-size:12px;line-height:125%;font-family:Sans;-inkscape-font-specification:Sans;text-align:start;letter-spacing:0px;word-spacing:0px;text-anchor:start;fill:#000000;fill-opacity:1;stroke:none"
       ns0:column="5"
       ns0:row="4"
       ns0:table-id="inkscape-table0-text"
       id="inkscape-table0fN"
       inkscape:export-xdpi="96"
       inkscape:export-ydpi="96"><flowRegion
         id="inkscape-table0o"><rect
           height="35.433071"
           width="35.433086"
           y="141.73228"
           x="177.16533"
           style="font-style:normal;font-variant:normal;font-weight:normal;font-stretch:normal;font-family:Sans;-inkscape-font-specification:Sans;text-align:start;text-anchor:start"
           id="inkscape-table0wq" /></flowRegion><flowPara
         id="inkscape-table0jO"
         style="text-anchor:middle;text-align:center;line-height:277.5%;-inkscape-font-specification:cmmi10;font-family:cmmi10;font-weight:normal;font-style:normal;font-stretch:normal;font-variant:normal">Inici</flowPara></flowRoot>    <flowRoot
       xml:space="preserve"
       style="font-style:normal;font-variant:normal;font-weight:normal;font-stretch:normal;font-size:12px;line-height:125%;font-family:Sans;-inkscape-font-specification:Sans;text-align:start;letter-spacing:0px;word-spacing:0px;text-anchor:start;fill:#000000;fill-opacity:1;stroke:none"
       ns0:column="7"
       ns0:row="3"
       ns0:table-id="inkscape-table0-text"
       id="inkscape-table0xy"
       inkscape:export-xdpi="96"
       inkscape:export-ydpi="96"><flowRegion
         id="inkscape-table09R"><rect
           height="35.433071"
           width="35.433086"
           y="106.29921"
           x="248.03149"
           style="font-style:normal;font-variant:normal;font-weight:normal;font-stretch:normal;font-family:Sans;-inkscape-font-specification:Sans;text-align:start;text-anchor:start"
           id="inkscape-table09L" /></flowRegion><flowPara
         id="inkscape-table09s"
         style="text-anchor:middle;text-align:center;line-height:277.5%;-inkscape-font-specification:cmmi10;font-family:cmmi10;font-weight:normal;font-style:normal;font-stretch:normal;font-variant:normal">C</flowPara></flowRoot>    <flowRoot
       xml:space="preserve"
       style="font-style:normal;font-variant:normal;font-weight:normal;font-stretch:normal;font-size:12px;line-height:277.5%;font-family:cmmi10;-inkscape-font-specification:cmmi10;text-align:center;letter-spacing:0px;word-spacing:0px;text-anchor:middle;fill:#000000;fill-opacity:1;stroke:none;"
       ns0:column="7"
       ns0:row="4"
       ns0:table-id="inkscape-table0-text"
       id="inkscape-table0td"
       inkscape:export-xdpi="96"
       inkscape:export-ydpi="96"><flowRegion
         id="inkscape-table0w8"
         style="line-height:277.5%;text-anchor:middle;text-align:center;-inkscape-font-specification:cmmi10;font-family:cmmi10;font-weight:normal;font-style:normal;font-stretch:normal;font-variant:normal;"><rect
           height="35.433071"
           width="35.433086"
           y="141.73228"
           x="248.03149"
           style="font-style:normal;font-variant:normal;font-weight:normal;font-stretch:normal;font-family:cmmi10;-inkscape-font-specification:cmmi10;text-align:center;text-anchor:middle;line-height:277.5%;"
           id="inkscape-table0cA" /></flowRegion><flowPara
         id="inkscape-table02">A</flowPara></flowRoot>    <flowRoot
       xml:space="preserve"
       style="font-style:normal;font-variant:normal;font-weight:normal;font-stretch:normal;font-size:12px;line-height:125%;font-family:Sans;-inkscape-font-specification:Sans;text-align:start;letter-spacing:0px;word-spacing:0px;text-anchor:start;fill:#000000;fill-opacity:1;stroke:none"
       ns0:column="8"
       ns0:row="4"
       ns0:table-id="inkscape-table0-text"
       id="inkscape-table0e6"
       inkscape:export-xdpi="96"
       inkscape:export-ydpi="96"><flowRegion
         id="inkscape-table02R"><rect
           height="35.433071"
           width="35.433086"
           y="141.73228"
           x="283.4646"
           style="font-style:normal;font-variant:normal;font-weight:normal;font-stretch:normal;font-family:Sans;-inkscape-font-specification:Sans;text-align:start;text-anchor:start"
           id="inkscape-table0os" /></flowRegion><flowPara
         id="inkscape-table0z"
         style="line-height:277.5%;-inkscape-font-specification:cmmi10;font-family:cmmi10;font-weight:normal;font-style:normal;font-stretch:normal;font-variant:normal;text-anchor:middle;text-align:center">B</flowPara></flowRoot>    <flowRoot
       xml:space="preserve"
       style="font-style:normal;font-variant:normal;font-weight:normal;font-stretch:normal;font-size:12px;line-height:125%;font-family:Sans;-inkscape-font-specification:Sans;text-align:start;letter-spacing:0px;word-spacing:0px;text-anchor:start;fill:#000000;fill-opacity:1;stroke:none"
       ns0:column="8"
       ns0:row="5"
       ns0:table-id="inkscape-table0-text"
       id="inkscape-table09J"><flowRegion
         id="inkscape-table0tl"><rect
           height="35.433071"
           width="35.433086"
           y="177.16536"
           x="283.4646"
           style="font-style:normal;font-variant:normal;font-weight:normal;font-stretch:normal;font-family:Sans;-inkscape-font-specification:Sans;text-align:start;text-anchor:start"
           id="inkscape-table0S" /></flowRegion><flowPara
         id="inkscape-table0HD" /></flowRoot>    <flowRoot
       xml:space="preserve"
       style="font-style:normal;font-variant:normal;font-weight:normal;font-stretch:normal;font-size:12px;line-height:277.5%;font-family:cmmi10;-inkscape-font-specification:cmmi10;text-align:center;letter-spacing:0px;word-spacing:0px;text-anchor:middle;fill:#000000;fill-opacity:1;stroke:none;"
       ns0:column="6"
       ns0:row="2"
       ns0:table-id="inkscape-table0-text"
       id="inkscape-table0vI"
       inkscape:export-xdpi="96"
       inkscape:export-ydpi="96"><flowRegion
         id="inkscape-table0c0"
         style="text-anchor:middle;text-align:center;line-height:277.5%;-inkscape-font-specification:cmmi10;font-family:cmmi10;font-weight:normal;font-style:normal;font-stretch:normal;font-variant:normal;"><rect
           height="35.433071"
           width="35.433086"
           y="70.866142"
           x="212.5984"
           style="font-style:normal;font-variant:normal;font-weight:normal;font-stretch:normal;font-family:cmmi10;-inkscape-font-specification:cmmi10;text-align:center;text-anchor:middle;line-height:277.5%;"
           id="inkscape-table0zx" /></flowRegion><flowPara
         id="inkscape-table0lp">K</flowPara></flowRoot>    <flowRoot
       xml:space="preserve"
       style="font-style:normal;font-variant:normal;font-weight:normal;font-stretch:normal;font-size:12px;line-height:277.5%;font-family:cmmi10;-inkscape-font-specification:cmmi10;text-align:center;letter-spacing:0px;word-spacing:0px;text-anchor:middle;fill:#000000;fill-opacity:1;stroke:none;"
       ns0:column="5"
       ns0:row="2"
       ns0:table-id="inkscape-table0-text"
       id="inkscape-table0wW"
       inkscape:export-xdpi="96"
       inkscape:export-ydpi="96"><flowRegion
         id="inkscape-table0m"
         style="line-height:277.5%;text-anchor:middle;text-align:center;-inkscape-font-specification:cmmi10;font-family:cmmi10;font-weight:normal;font-style:normal;font-stretch:normal;font-variant:normal;"><rect
           height="35.433071"
           width="35.433086"
           y="70.866142"
           x="177.16533"
           style="font-style:normal;font-variant:normal;font-weight:normal;font-stretch:normal;font-family:cmmi10;-inkscape-font-specification:cmmi10;text-align:center;text-anchor:middle;line-height:277.5%;"
           id="inkscape-table07u" /></flowRegion><flowPara
         id="inkscape-table0W">Final</flowPara></flowRoot>    <flowRoot
       xml:space="preserve"
       style="font-style:normal;font-variant:normal;font-weight:normal;font-stretch:normal;font-size:12px;line-height:125%;font-family:Sans;-inkscape-font-specification:Sans;text-align:start;letter-spacing:0px;word-spacing:0px;text-anchor:start;fill:#000000;fill-opacity:1;stroke:none"
       ns0:column="5"
       ns0:row="4"
       ns0:table-id="inkscape-table0-text"
       id="inkscape-table0mJ"><flowRegion
         id="inkscape-table0vN"><rect
           height="35.433071"
           width="35.433086"
           y="141.73228"
           x="177.16533"
           style="font-style:normal;font-variant:normal;font-weight:normal;font-stretch:normal;font-family:Sans;-inkscape-font-specification:Sans;text-align:start;text-anchor:start"
           id="inkscape-table0dD" /></flowRegion><flowPara
         id="inkscape-table0Jk" /></flowRoot>    <flowRoot
       xml:space="preserve"
       style="font-style:normal;font-variant:normal;font-weight:normal;font-stretch:normal;font-size:12px;line-height:125%;font-family:Sans;-inkscape-font-specification:Sans;text-align:start;letter-spacing:0px;word-spacing:0px;text-anchor:start;fill:#000000;fill-opacity:1;stroke:none"
       ns0:column="7"
       ns0:row="3"
       ns0:table-id="inkscape-table0-text"
       id="inkscape-table0r"><flowRegion
         id="inkscape-table0VQ"><rect
           height="35.433071"
           width="35.433086"
           y="106.29921"
           x="248.03149"
           style="font-style:normal;font-variant:normal;font-weight:normal;font-stretch:normal;font-family:Sans;-inkscape-font-specification:Sans;text-align:start;text-anchor:start"
           id="inkscape-table0v2" /></flowRegion><flowPara
         id="inkscape-table0Ua" /></flowRoot>    <flowRoot
       xml:space="preserve"
       style="font-style:normal;font-variant:normal;font-weight:normal;font-stretch:normal;font-size:12px;line-height:125%;font-family:Sans;-inkscape-font-specification:Sans;text-align:start;letter-spacing:0px;word-spacing:0px;text-anchor:start;fill:#000000;fill-opacity:1;stroke:none"
       ns0:column="7"
       ns0:row="4"
       ns0:table-id="inkscape-table0-text"
       id="inkscape-table0X"><flowRegion
         id="inkscape-table0wC"><rect
           height="35.433071"
           width="35.433086"
           y="141.73228"
           x="248.03149"
           style="font-style:normal;font-variant:normal;font-weight:normal;font-stretch:normal;font-family:Sans;-inkscape-font-specification:Sans;text-align:start;text-anchor:start"
           id="inkscape-table0U6" /></flowRegion><flowPara
         id="inkscape-table0mP" /></flowRoot>    <flowRoot
       xml:space="preserve"
       style="font-style:normal;font-variant:normal;font-weight:normal;font-stretch:normal;font-size:12px;line-height:125%;font-family:Sans;-inkscape-font-specification:Sans;text-align:start;letter-spacing:0px;word-spacing:0px;text-anchor:start;fill:#000000;fill-opacity:1;stroke:none"
       ns0:column="0"
       ns0:row="4"
       ns0:table-id="inkscape-table0-text"
       id="inkscape-table0JT"
       inkscape:export-xdpi="96"
       inkscape:export-ydpi="96"><flowRegion
         id="inkscape-table0Z"><rect
           height="35.433071"
           width="35.433071"
           y="141.73228"
           x="0"
           style="font-style:normal;font-variant:normal;font-weight:normal;font-stretch:normal;font-family:Sans;-inkscape-font-specification:Sans;text-align:start;text-anchor:start"
           id="inkscape-table0Yk" /></flowRegion><flowPara
         id="inkscape-table0B"
         style="-inkscape-font-specification:cmmi10;font-family:cmmi10;font-weight:normal;font-style:normal;font-stretch:normal;font-variant:normal;text-anchor:middle;text-align:center;line-height:33.3px">G</flowPara></flowRoot>    <flowRoot
       xml:space="preserve"
       style="font-style:normal;font-variant:normal;font-weight:normal;font-stretch:normal;font-size:12px;line-height:125%;font-family:Sans;-inkscape-font-specification:Sans;text-align:start;letter-spacing:0px;word-spacing:0px;text-anchor:start;fill:#000000;fill-opacity:1;stroke:none"
       ns0:column="8"
       ns0:row="4"
       ns0:table-id="inkscape-table0-text"
       id="inkscape-table0L"><flowRegion
         id="inkscape-table0WN"><rect
           height="35.433071"
           width="35.433086"
           y="141.73228"
           x="283.4646"
           style="font-style:normal;font-variant:normal;font-weight:normal;font-stretch:normal;font-family:Sans;-inkscape-font-specification:Sans;text-align:start;text-anchor:start"
           id="inkscape-table0G" /></flowRegion><flowPara
         id="inkscape-table0rB" /></flowRoot>    <flowRoot
       xml:space="preserve"
       style="font-style:normal;font-variant:normal;font-weight:normal;font-stretch:normal;font-size:12px;line-height:125%;font-family:Sans;-inkscape-font-specification:Sans;text-align:start;letter-spacing:0px;word-spacing:0px;text-anchor:start;fill:#000000;fill-opacity:1;stroke:none"
       ns0:column="8"
       ns0:row="5"
       ns0:table-id="inkscape-table0-text"
       id="inkscape-table0zK"><flowRegion
         id="inkscape-table0n"><rect
           height="35.433071"
           width="35.433086"
           y="177.16536"
           x="283.4646"
           style="font-style:normal;font-variant:normal;font-weight:normal;font-stretch:normal;font-family:Sans;-inkscape-font-specification:Sans;text-align:start;text-anchor:start"
           id="inkscape-table0E" /></flowRegion><flowPara
         id="inkscape-table0Dw" /></flowRoot>    <flowRoot
       xml:space="preserve"
       style="font-style:normal;font-variant:normal;font-weight:normal;font-stretch:normal;font-size:12px;line-height:125%;font-family:Sans;-inkscape-font-specification:Sans;text-align:start;letter-spacing:0px;word-spacing:0px;text-anchor:start;fill:#000000;fill-opacity:1;stroke:none"
       ns0:column="3"
       ns0:row="2"
       ns0:table-id="inkscape-table0-text"
       id="inkscape-table0vO"
       inkscape:export-xdpi="96"
       inkscape:export-ydpi="96"><flowRegion
         id="inkscape-table064"><rect
           height="35.433071"
           width="35.433071"
           y="70.866142"
           x="106.29921"
           style="font-style:normal;font-variant:normal;font-weight:normal;font-stretch:normal;font-family:Sans;-inkscape-font-specification:Sans;text-align:start;text-anchor:start"
           id="inkscape-table0se" /></flowRegion><flowPara
         id="inkscape-table02g"
         style="text-anchor:middle;text-align:center;line-height:277.5%;-inkscape-font-specification:cmmi10;font-family:cmmi10;font-weight:normal;font-style:normal;font-stretch:normal;font-variant:normal">E</flowPara></flowRoot>    <flowRoot
       xml:space="preserve"
       style="font-style:normal;font-variant:normal;font-weight:normal;font-stretch:normal;font-size:12px;line-height:33.34455504px;font-family:Sans;-inkscape-font-specification:Sans;text-align:start;letter-spacing:0px;word-spacing:0px;text-anchor:start;fill:#000000;fill-opacity:1;stroke:none;writing-mode:lr-tb;"
       ns0:column="2"
       ns0:row="0"
       ns0:table-id="inkscape-table0-text"
       id="inkscape-table0UC"
       inkscape:export-xdpi="96"
       inkscape:export-ydpi="96"><flowRegion
         id="inkscape-table03"
         style="writing-mode:lr-tb;line-height:33.34455504px;"><rect
           height="35.433071"
           width="35.433071"
           y="0"
           x="70.866142"
           style="font-style:normal;font-variant:normal;font-weight:normal;font-stretch:normal;font-family:Sans;-inkscape-font-specification:Sans;text-align:start;text-anchor:start;writing-mode:lr-tb;line-height:33.34455504px;"
           id="inkscape-table0T" /></flowRegion><flowPara
         style="font-style:normal;font-variant:normal;font-weight:normal;font-stretch:normal;font-family:cmmi10;-inkscape-font-specification:cmmi10;text-align:center;text-anchor:middle;writing-mode:lr-tb;line-height:33.34455504px"
         id="flowPara5768">H</flowPara></flowRoot>    <flowRoot
       xml:space="preserve"
       style="font-style:normal;font-variant:normal;font-weight:normal;font-stretch:normal;font-size:12px;line-height:125%;font-family:Sans;-inkscape-font-specification:Sans;text-align:start;letter-spacing:0px;word-spacing:0px;text-anchor:start;fill:#000000;fill-opacity:1;stroke:none"
       ns0:column="1"
       ns0:row="2"
       ns0:table-id="inkscape-table0-text"
       id="inkscape-table0LV"
       inkscape:export-xdpi="96"
       inkscape:export-ydpi="96"><flowRegion
         id="inkscape-table0Vv"><rect
           height="35.433071"
           width="35.433071"
           y="70.866142"
           x="35.433071"
           style="font-style:normal;font-variant:normal;font-weight:normal;font-stretch:normal;font-family:Sans;-inkscape-font-specification:Sans;text-align:start;text-anchor:start"
           id="inkscape-table0K2" /></flowRegion><flowPara
         id="inkscape-table0fE"
         style="-inkscape-font-specification:cmmi10;font-family:cmmi10;font-weight:normal;font-style:normal;font-stretch:normal;font-variant:normal;text-anchor:middle;text-align:center;line-height:33.30000114px;">F</flowPara></flowRoot>    <flowRoot
       xml:space="preserve"
       style="font-style:normal;font-variant:normal;font-weight:normal;font-stretch:normal;font-size:12px;line-height:125%;font-family:Sans;-inkscape-font-specification:Sans;text-align:start;letter-spacing:0px;word-spacing:0px;text-anchor:start;fill:#000000;fill-opacity:1;stroke:none"
       ns0:column="6"
       ns0:row="2"
       ns0:table-id="inkscape-table0-text"
       id="inkscape-table0Qt"><flowRegion
         id="inkscape-table0UO"><rect
           height="35.433071"
           width="35.433086"
           y="70.866142"
           x="212.5984"
           style="font-style:normal;font-variant:normal;font-weight:normal;font-stretch:normal;font-family:Sans;-inkscape-font-specification:Sans;text-align:start;text-anchor:start"
           id="inkscape-table0lu" /></flowRegion><flowPara
         id="inkscape-table0Ph" /></flowRoot>    <flowRoot
       xml:space="preserve"
       style="font-style:normal;font-variant:normal;font-weight:normal;font-stretch:normal;font-size:12px;line-height:33.3px;font-family:Sans;-inkscape-font-specification:Sans;text-align:start;letter-spacing:0px;word-spacing:0px;text-anchor:start;fill:#000000;fill-opacity:1;stroke:none;"
       ns0:column="3"
       ns0:row="1"
       ns0:table-id="inkscape-table0-text"
       id="inkscape-table00t"
       inkscape:export-xdpi="96"
       inkscape:export-ydpi="96"><flowRegion
         id="inkscape-table0C"
         style="line-height:33.3px;"><rect
           height="35.433071"
           width="35.433071"
           y="35.433071"
           x="106.29921"
           style="font-style:normal;font-variant:normal;font-weight:normal;font-stretch:normal;font-family:Sans;-inkscape-font-specification:Sans;text-align:start;text-anchor:start;line-height:33.3px;"
           id="inkscape-table0ad" /></flowRegion><flowPara
         id="inkscape-table02q"
         style="-inkscape-font-specification:cmmi10;font-family:cmmi10;font-weight:normal;font-style:normal;font-stretch:normal;font-variant:normal;text-anchor:middle;text-align:center;line-height:33.3px;">I</flowPara></flowRoot>    <flowRoot
       xml:space="preserve"
       style="font-style:normal;font-variant:normal;font-weight:normal;font-stretch:normal;font-size:12px;line-height:125%;font-family:Sans;-inkscape-font-specification:Sans;text-align:start;letter-spacing:0px;word-spacing:0px;text-anchor:start;fill:#000000;fill-opacity:1;stroke:none"
       ns0:column="5"
       ns0:row="2"
       ns0:table-id="inkscape-table0-text"
       id="inkscape-table0rR"><flowRegion
         id="inkscape-table0u"><rect
           height="35.433071"
           width="35.433086"
           y="70.866142"
           x="177.16533"
           style="font-style:normal;font-variant:normal;font-weight:normal;font-stretch:normal;font-family:Sans;-inkscape-font-specification:Sans;text-align:start;text-anchor:start"
           id="inkscape-table0D2" /></flowRegion><flowPara
         id="inkscape-table0Jl" /></flowRoot>    <flowRoot
       xml:space="preserve"
       style="font-style:normal;font-variant:normal;font-weight:normal;font-stretch:normal;font-size:12px;line-height:277.5%;font-family:cmmi10;-inkscape-font-specification:cmmi10;text-align:center;letter-spacing:0px;word-spacing:0px;text-anchor:middle;fill:#000000;fill-opacity:1;stroke:none;"
       ns0:column="4"
       ns0:row="2"
       ns0:table-id="inkscape-table0-text"
       id="inkscape-table0wd"
       inkscape:export-xdpi="96"
       inkscape:export-ydpi="96"><flowRegion
         id="inkscape-table03B"
         style="text-anchor:middle;text-align:center;-inkscape-font-specification:cmmi10;font-family:cmmi10;font-weight:normal;font-style:normal;font-stretch:normal;font-variant:normal;line-height:277.5%;"><rect
           height="35.433071"
           width="35.433071"
           y="70.866142"
           x="141.73228"
           style="font-style:normal;font-variant:normal;font-weight:normal;font-stretch:normal;font-family:cmmi10;-inkscape-font-specification:cmmi10;text-align:center;text-anchor:middle;line-height:277.5%;"
           id="inkscape-table08" /></flowRegion><flowPara
         id="inkscape-table0I">J</flowPara></flowRoot>    <flowRoot
       id="flowRoot5782"
       ns0:table-id="inkscape-table0-text"
       ns0:row="5"
       ns0:column="8"
       style="font-style:normal;font-variant:normal;font-weight:normal;font-stretch:normal;font-size:12px;line-height:125%;font-family:Sans;-inkscape-font-specification:Sans;text-align:start;letter-spacing:0px;word-spacing:0px;text-anchor:start;fill:#000000;fill-opacity:1;stroke:none"
       xml:space="preserve"
       inkscape:export-xdpi="96"
       inkscape:export-ydpi="96"><flowRegion
         id="flowRegion5778"><rect
           id="rect5776"
           style="font-style:normal;font-variant:normal;font-weight:normal;font-stretch:normal;font-family:Sans;-inkscape-font-specification:Sans;text-align:start;text-anchor:start"
           x="283.4646"
           y="177.16536"
           width="35.433086"
           height="35.433071" /></flowRegion><flowPara
         id="flowPara5780"
         style="line-height:277.5%;text-anchor:middle;text-align:center;-inkscape-font-specification:cmmi10;font-family:cmmi10;font-weight:normal;font-style:normal;font-stretch:normal;font-variant:normal">D</flowPara></flowRoot>  </g>
  <ns0:tables
     count="1">
    <ns0:table
       table-id="inkscape-table0"
       rows="6"
       columns="10" />
  </ns0:tables>
</svg>
